…
test_power<-power_interaction(
  n.iter = 1000,            # number of simulations per unique combination of input parameters
  alpha = 0.05,             # alpha, for the power analysis
  N = 350,                  # sample size
  r.x1x2.y = .15,           # interaction effect to test (correlation between x1*x2 and y)
  r.x1.y = .2,              # correlation between x1 and y
  r.x2.y = .1,              # correlation between x2 and y
  r.x1.x2 = .2              # correlation between x1 and x2
)
#> [1] "Checking for errors in inputs..."
#> [1] "Performing 1000 simulations"
toc()
#> 17.71 sec elapsed
test_power
#> # A tibble: 1,000 x 4
#> # Groups:   x1x2_r2, x1x2_95confint_25 [1,000]
#>     x1x2_r2 x1x2_95confint_25 x1x2_95confint_975   pwr
#>       <dbl>             <dbl>              <dbl> <dbl>
#>  1 -0.00278           -0.114              0.0991     0
#>  2 -0.00277           -0.101              0.114      0
#>  3 -0.00271           -0.106              0.118      0
#>  4 -0.00268           -0.102              0.111      0
#>  5 -0.00246           -0.0868             0.121      0
#>  6 -0.00235           -0.0843             0.124      0
#>  7 -0.00215           -0.117              0.0715     0
#>  8 -0.00204           -0.0740             0.127      0
#>  9 -0.00196           -0.132              0.0779     0
#> 10 -0.00175           -0.0765             0.146      0
#> # ... with 990 more rows
```
…
